0 0.127200 0.417614 0.190400 0.443182
0 0.175200 0.360795 0.200000 0.460227
0 0.856000 0.352273 0.188800 0.636364
0 0.770400 0.521307 0.196800 0.599432
0 0.380000 0.833807 0.244800 0.332386
0 0.428000 0.588068 0.264000 0.613636
0 0.561600 0.240057 0.342400 0.315341
0 0.634400 0.397727 0.305600 0.488636
