0 0.498333 0.425625 0.481667 0.186250
0 0.396250 0.400625 0.382500 0.093750
0 0.420417 0.300000 0.290833 0.112500
0 0.375000 0.201250 0.418333 0.267500
0 0.433333 0.177500 0.333333 0.240000
0 0.505417 0.185000 0.192500 0.157500
0 0.406667 0.155000 0.345000 0.252500
0 0.430417 0.109375 0.355833 0.216250
