15 0.087846 0.588686 0.039673 0.325983
15 0.134131 0.581016 0.042821 0.289549
15 0.170025 0.557047 0.047859 0.287632
15 0.218829 0.519175 0.045970 0.298178
15 0.277708 0.736337 0.214106 0.201342
15 0.337217 0.791946 0.113980 0.256951
15 0.411209 0.768936 0.079345 0.232023
15 0.454975 0.791946 0.034635 0.272291
15 0.504723 0.790508 0.044710 0.209971
15 0.573363 0.785235 0.069899 0.199425
15 0.649559 0.780441 0.108942 0.214765
15 0.728275 0.736337 0.237406 0.256951
15 0.861776 0.424736 0.086272 0.694151
