15 0.371667 0.771667 0.110000 0.423333
15 0.250000 0.776667 0.106667 0.420000
15 0.131667 0.755000 0.070000 0.490000
15 0.746667 0.771667 0.466667 0.256667
15 0.441667 0.301667 0.043333 0.250000
15 0.375000 0.311667 0.056667 0.236667
15 0.303333 0.301667 0.060000 0.230000
15 0.235000 0.308333 0.050000 0.230000
15 0.173333 0.308333 0.046667 0.236667
15 0.128333 0.291667 0.030000 0.250000
15 0.101667 0.291667 0.030000 0.250000
15 0.065000 0.291667 0.030000 0.243333
15 0.041667 0.283333 0.043333 0.246667
