15 0.168182 0.383333 0.209091 0.712121
15 0.274242 0.416667 0.275758 0.681818
15 0.383333 0.477273 0.348485 0.663636
15 0.483333 0.536364 0.421212 0.636364
15 0.568182 0.615152 0.481818 0.593939
15 0.651515 0.709091 0.545455 0.527273
